,,0,1,2,target
n1,0,0,0.16508496666666667,48,0
n1,1,1,0.18900866111111111,70,0
n1,2,2,0.18627426111111112,44,0
n1,3,3,0.1769078166666667,57,0
n1,4,4,0.1632861111111111,67,0
n1,5,5,0.21035836666666666,95,0
n1,6,6,0.2289667,56,0
n1,7,7,0.16754655555555556,50,0
n1,8,8,0.11286891666666665,52,0
n1,9,9,0.18351691666666667,61,0
n1,10,10,0.20849090555555552,44,0
n1,11,11,0.19780732777777776,89,0
n1,12,12,0.22801096111111116,85,0
n1,13,13,0.20697012222222225,68,0
n1,14,14,0.2223414333333333,99,0
n1,15,15,0.19582023333333332,93,0
n1,16,16,0.2046436222222222,119,0
n1,17,17,0.19689911666666665,80,0
n1,18,18,0.21562109444444444,44,0
n1,19,19,0.2240835277777778,84,0
n1,20,20,0.20899574444444444,90,0
n1,21,21,0.1603339888888889,37,0
n1,22,22,0.19086737222222225,65,0
n1,23,23,0.21725814444444444,44,0
n1,24,24,0.16014653333333334,41,0
n1,25,25,0.11468832777777775,50,0
n1,27,27,0.15994882777777775,64,0
n1,28,28,0.17918879444444444,65,0
n1,29,29,0.13597377777777778,50,0
n1,30,30,0.16739894444444442,28,0
n1,31,31,0.17498273333333333,58,0
n1,32,32,0.18231908333333333,85,0
n1,33,33,0.20967589444444446,61,0
n1,34,34,0.22143233333333331,54,0
n1,35,35,0.21601968888888887,88,0
n1,36,36,0.18441768333333336,68,0
n1,37,37,0.14729682777777775,9,0
n1,38,38,0.15390884444444447,16,0
n1,39,39,0.02815573888888889,14,1
n1,42,42,0.011710205555555556,3,1
n1,43,43,0.23014205,21,0
n1,44,44,0.2194961722222222,43,0
n1,45,45,0.19421735,73,0
n1,46,46,0.2560184222222222,20,0
n1,47,47,0.17353373888888887,60,0
n1,48,48,0.21847122777777772,40,0
n1,49,49,0.23523087777777776,56,0
n1,50,50,0.2436151888888889,27,0
n1,51,51,0.2115545722222222,54,0
n1,52,52,0.18236302222222225,52,0
n1,53,53,0.20393244444444444,50,0
n1,54,54,0.17832163888888888,60,0
n1,55,55,0.1972418111111111,42,0
n1,56,56,0.20417581666666665,74,0
n1,57,57,0.1842447888888889,100,0
n1,58,58,0.0824578388888889,28,0
n1,59,59,0.13378545,41,0
n1,60,60,0.1944054888888889,85,0
n1,61,61,0.18383372222222225,78,0
n1,62,62,0.18475877777777774,89,0
n1,63,63,0.08183720555555554,25,0
n1,65,65,0.04621885555555555,24,0
n1,66,66,0.1981303888888889,45,0
n1,67,67,0.23624160000000002,57,0
n1,68,68,0.15804366666666664,87,0
n1,69,69,0.1789872,59,0
n1,70,70,0.2063596388888889,59,0
n1,71,71,0.10898416666666666,28,0
n1,72,72,0.21907804444444445,65,0
n1,73,73,0.14020059444444444,48,0
n1,74,74,0.1828827111111111,73,0
n1,75,75,0.21094367777777775,66,0
n1,76,76,0.1530689888888889,56,0
n1,77,77,0.1550570888888889,20,0
n1,78,78,0.14851580555555555,35,0
n1,79,79,0.16420841111111112,42,0
n1,80,80,0.1824059055555556,69,0
n1,81,81,0.1738268388888889,62,0
n1,82,82,0.17333397222222222,61,0
n1,83,83,0.09934518333333334,48,0
n1,84,84,0.06873862777777777,19,1
n1,85,85,0.1200865611111111,43,0
n1,86,86,0.15065056111111114,53,0
n1,87,87,0.1644600277777778,22,0
n1,88,88,0.19181371666666666,44,0
n1,89,89,0.1948840388888889,65,0
n1,90,90,0.1319000888888889,57,0
n1,91,91,0.14702898888888888,58,0
n1,92,92,0.07693332222222221,20,1
n1,93,93,0.15404918888888888,63,0
n1,94,94,0.09384277222222223,16,0
n1,95,95,0.11936548333333333,38,0
n1,96,96,0.1855671388888889,57,0
n1,97,97,0.14681267222222222,43,0
n1,98,98,0.1472852,69,0
n1,99,99,0.14941300555555553,65,0
n1,100,100,0.16645765555555556,66,0
n1,101,101,0.1843893555555556,59,0
n1,102,102,0.1575068,79,0
n2,0,0,0.23467755,34,0
n2,1,1,0.05361737777777778,7,1
n2,2,2,0.06908382222222223,17,1
n2,3,3,0.2430792611111111,25,0
n2,4,4,0.2423732666666667,20,0
n2,5,5,0.2129795555555556,21,0
n2,6,6,0.2401001166666667,25,0
n2,7,7,0.22982286666666665,23,0
n2,8,8,0.19890837777777776,19,0
n2,9,9,0.10169796666666668,14,0
n2,10,10,0.04362931111111111,12,1
n2,11,11,0.1591715277777778,46,0
n2,12,12,0.21491171111111115,49,0
n2,13,13,0.15132491666666667,20,0
n2,14,14,0.2213774611111111,30,0
n2,15,15,0.14524801666666667,21,0
n2,16,16,0.2257369333333333,24,0
n2,17,17,0.19999417777777775,53,0
n2,18,18,0.056708083333333326,22,0
n2,19,19,0.13073460555555555,29,0
n2,20,20,0.0953626277777778,24,0
n2,21,21,0.16922751666666666,15,0
n2,22,22,0.02967131666666667,6,1
n2,23,23,0.1317527,43,0
n2,24,24,0.17299570555555555,30,0
n2,25,25,0.19728802777777776,48,0
n2,26,26,0.16631756666666667,26,0
n2,27,27,0.21049653333333326,26,0
n2,28,28,0.21028853333333333,21,0
n2,29,29,0.23199302222222226,47,0
n2,30,30,0.13402319444444444,29,0
n2,31,31,0.0005936222222222223,0,1
n2,32,32,0.00846931111111111,3,1
n2,33,33,0.08643812222222222,16,0
n2,34,34,0.12173154444444445,59,0
n2,35,35,0.07963992222222223,26,0
n2,36,36,0.06534883888888889,19,1
n2,37,37,0.12882208333333334,42,0
n2,38,38,0.0650651388888889,20,1
n2,39,39,0.09370214444444444,35,0
n2,40,40,0.03528659444444444,12,1
n2,41,41,0.01548074444444444,5,1
n2,42,42,0.012563,1,1
n2,43,43,0.08989749444444442,22,0
n2,44,44,0.013660816666666669,4,1
n2,45,45,0.09078879444444443,21,0
n2,46,46,0.06573804999999999,14,1
n2,47,47,0.09218958333333332,36,0
n2,48,48,0.06547719444444444,19,1
n2,49,49,0.11887028888888887,32,0
n2,50,50,0.10888247777777778,20,0
n2,51,51,0.20634051666666664,25,0
n2,52,52,0.1311632,34,0
n2,53,53,0.09584496111111113,17,0
n2,54,54,0.1382161222222222,28,0
n2,55,55,0.05122734444444445,9,1
n2,56,56,0.13557670555555554,12,0
n2,57,57,0.008501100000000001,2,1
n2,58,58,0.14277474444444446,32,0
n2,59,59,0.17851729444444447,30,0
n2,60,60,0.06750160000000001,18,1
n2,61,61,0.10929660000000001,36,0
n2,62,62,0.19341447777777776,48,0
n2,63,63,0.12053136111111112,29,0
n2,64,64,0.0942310722222222,28,0
n2,65,65,0.13952915,40,0
n2,66,66,0.1289954722222222,51,0
n2,67,67,0.009783438888888888,5,1
n2,69,69,0.010305844444444445,5,1
n2,70,70,0.017909288888888892,5,1
n3,1,1,0.0002756944444444444,0,1
n3,2,2,0.03890316666666667,0,1
n3,3,3,0.003842716666666667,0,1
n3,4,4,0.10371945555555556,7,0
n3,5,5,0.08849236666666667,5,0
n3,6,6,0.07352655,5,1
n3,7,7,0.05166821666666667,8,1
n3,8,8,0.06582183333333333,3,1
n3,9,9,0.018825677777777772,0,1
n3,10,10,0.02109391111111111,1,1
n3,11,11,0.09144070555555554,4,0
n3,12,12,0.09193847222222222,11,0
n3,13,13,0.20634511666666666,36,0
n3,14,14,0.19899062777777776,47,0
n3,15,15,0.22075129999999998,35,0
n3,16,16,0.2067745555555556,33,0
n3,17,17,0.25727555555555554,19,0
n3,18,18,0.2583127666666667,16,0
n3,19,19,0.19741492777777772,34,0
n3,20,20,0.1861111055555556,4,0
n3,21,21,0.2379225722222222,16,0
n3,22,22,0.23238977777777775,8,0
n3,23,23,0.2275292166666667,17,0
n3,24,24,0.19509293333333333,33,0
n3,25,25,0.24658604444444446,38,0
n3,26,26,0.12791271111111113,18,0
n3,27,27,0.15641080555555556,23,0
n3,28,28,0.1243442388888889,27,0
n3,29,29,0.15248653888888886,8,0
n3,30,30,0.22031595,11,0
n3,31,31,0.17172072222222226,11,0
n3,32,32,0.14795279444444442,28,0
n3,33,33,0.04003658333333333,0,1
n3,34,34,0.12657708888888888,9,0
n3,35,35,0.08854469444444445,0,0
n3,36,36,0.016156388888888887,0,1
n3,37,37,0.12834350555555554,5,0
n3,38,38,0.05867122777777777,29,0
n3,39,39,0.02669605,2,1
n3,40,40,0.12010403333333332,1,0
n3,41,41,0.07407956111111111,8,1
n3,42,42,0.08436923888888889,15,1
n3,43,43,0.18342821666666667,4,0
n3,44,44,0.08583131111111111,2,0
n3,45,45,0.017817016666666668,4,1
n3,46,46,0.047665744444444436,6,1
n3,47,47,0.10651054444444444,7,0
n3,48,48,0.13961634444444446,25,0
n3,49,49,0.1279147722222222,34,0
n3,50,50,0.11762405555555555,25,0
n3,51,51,0.04844988888888889,5,1
n3,52,52,0.027195122222222225,5,1
n3,53,53,0.08430307777777778,10,1
n3,54,54,0.16348832222222226,18,0
n3,55,55,0.17942870000000002,27,0
n3,56,56,0.09848705,13,0
n3,57,57,0.09759316666666666,15,0
n3,58,58,0.22248751666666666,14,0
n3,59,59,0.11898398333333335,16,0
n3,60,60,0.048660433333333336,5,1
n3,61,61,0.08173926666666667,21,0
n3,62,62,0.049886072222222216,4,1
n3,63,63,0.11439712777777775,12,0
n3,64,64,0.06010115,12,1
n3,65,65,0.11871785555555554,22,0
n3,66,66,0.09030798333333334,4,0
n3,67,67,0.13536145555555554,37,0
n3,68,68,0.2095865055555556,15,0
n3,69,69,0.2391651722222222,10,0
n3,70,70,0.2238236111111111,19,0
n3,71,71,0.25210555,1,0
n3,72,72,0.1322044888888889,3,0
n3,73,73,0.18363102222222225,7,0
n3,74,74,0.1047486611111111,3,0
n3,75,75,0.00097225,0,1
n3,76,76,0.019499177777777783,2,1
n3,77,77,0.09882644444444444,3,0
n3,78,78,0.09559666666666668,2,0
n3,79,79,0.07675532777777777,3,1
n3,80,80,0.1749488277777778,11,0
n3,81,81,0.15309425000000002,11,0
n3,82,82,0.19238773888888888,10,0
n3,83,83,0.20623697777777775,5,0
n3,84,84,0.07039307777777777,4,1
n3,85,85,0.13809342777777778,23,0
n3,86,86,0.22770827222222226,43,0
n3,87,87,0.15111095,19,0
n3,88,88,0.10815160555555556,1,0
n3,89,89,0.068704,11,1
n3,90,90,0.13770286666666667,21,0
n3,91,91,0.2590289833333333,13,0
n3,92,92,0.2339563388888889,69,0
n3,93,93,0.10030672777777776,26,0
n3,94,94,0.15611127777777778,4,0
n3,95,95,0.052913438888888886,0,1
n3,96,96,0.0183467,0,1
n3,97,97,0.04703966666666667,1,1
n3,98,98,0.04278246666666667,4,1
n3,99,99,0.050185238888888886,1,1
n3,100,100,0.10281981666666667,11,0
n3,101,101,0.03381524444444444,1,1
n3,102,102,0.08080658333333332,0,1
n3,103,103,0.06322589444444444,14,1
n3,104,104,0.0856020888888889,1,0
n3,105,105,0.07028725000000001,0,1
n3,106,106,0.0811656,2,1
n4,0,0,0.2951637888888889,27,0
n4,1,1,0.2785311833333333,35,0
n4,2,2,0.27958177777777776,32,0
n4,3,3,0.2623592333333333,37,0
n4,4,4,0.27581001666666666,30,0
n4,5,5,0.2580974833333333,28,0
n4,6,6,0.2462797666666667,33,0
n4,7,7,0.28193491666666665,24,0
n4,8,8,0.2919564722222222,43,0
n4,9,9,0.28427607222222223,38,0
n4,10,10,0.2889463888888889,57,0
n4,11,11,0.31896089999999994,36,0
n4,12,12,0.3052668888888889,25,0
n4,13,13,0.3149520388888889,37,0
n4,14,14,0.30050883888888885,44,0
n4,15,15,0.3143292277777778,36,0
n4,16,16,0.3133144222222222,32,0
n4,17,17,0.3046447,41,0
n4,18,18,0.32335055555555553,36,0
n4,19,19,0.3201739555555556,28,0
n4,20,20,0.3106220166666667,24,0
n4,21,21,0.32752706666666664,29,0
n4,22,22,0.3165711333333333,25,0
n4,23,23,0.3115376555555555,30,0
n4,24,24,0.31978118888888896,29,0
n4,25,25,0.3260167277777778,31,0
n4,26,26,0.32997275555555555,28,0
n4,27,27,0.3210428777777778,34,0
n4,28,28,0.3334677166666667,22,0
n4,29,29,0.3149047777777778,34,0
n4,30,30,0.32667592222222225,23,0
n4,31,31,0.30972476111111114,34,0
n4,32,32,0.3174427888888889,27,0
n4,33,33,0.3202373055555556,23,0
n4,34,34,0.32766557222222226,28,0
n4,35,35,0.3334436444444445,33,0
n4,36,36,0.29025514444444445,43,0
n4,37,37,0.30046870555555555,42,0
n4,38,38,0.3031525944444444,42,0
n4,39,39,0.3228815,26,0
n4,40,40,0.3363530111111111,25,0
n4,41,41,0.32342014444444445,30,0
n4,42,42,0.3101036055555556,33,0
n4,43,43,0.3114033,22,0
n4,44,44,0.3064215055555556,33,0
n4,45,45,0.32440437222222224,31,0
n4,46,46,0.31480055,26,0
n4,47,47,0.30092313333333337,23,0
n4,48,48,0.3234961722222223,23,0
n4,49,49,0.34078869444444443,18,0
n4,50,50,0.33675357222222224,22,0
n4,51,51,0.3322500222222223,24,0
n4,52,52,0.3368390944444444,19,0
n4,53,53,0.34573536111111114,21,0
n4,54,54,0.3523106777777778,18,0
n4,55,55,0.3348391333333333,29,0
n4,56,56,0.3461070777777777,22,0
n4,57,57,0.3334191166666667,31,0
n4,58,58,0.3417530277777778,25,0
n4,59,59,0.3475350944444445,23,0
n4,60,60,0.3471076166666666,19,0
n4,61,61,0.3241728611111111,23,0
n4,62,62,0.3183197222222222,27,0
n4,63,63,0.25447881666666666,36,0
n4,64,64,0.3290004,26,0
n4,65,65,0.33528430555555555,24,0
n4,66,66,0.34906327222222217,23,0
n4,67,67,0.3478765,18,0
n4,68,68,0.3379734388888889,28,0
n4,69,69,0.33850116111111106,27,0
n4,70,70,0.3395046166666667,26,0
n4,71,71,0.3394022222222222,28,0
n4,72,72,0.3387691666666667,20,0
n4,73,73,0.34337008333333324,24,0
n4,74,74,0.3099038388888889,31,0
n4,75,75,0.31031463333333337,33,0
n4,76,76,0.34681875,22,0
n4,77,77,0.33862847777777777,32,0
n4,78,78,0.33441122777777776,33,0
n4,79,79,0.3354250166666667,33,0
n4,80,80,0.34191745,30,0
n4,81,81,0.3270690222222222,36,0
n4,82,82,0.3052500444444445,49,0
n4,83,83,0.314614,39,0
n4,84,84,0.2966643333333333,54,0
n4,85,85,0.3099321777777777,39,0
n4,86,86,0.31292861111111114,45,0
n4,87,87,0.3167773222222223,39,0
n4,88,88,0.30439961111111113,28,0
n4,89,89,0.3378470444444444,34,0
n4,90,90,0.3124182944444445,31,0
n4,91,91,0.3125368000000001,34,0
n4,92,92,0.2945921944444445,36,0
n4,93,93,0.3292176444444445,26,0
n4,94,94,0.31307511111111114,30,0
n4,95,95,0.31513117777777777,26,0
n4,96,96,0.3204594777777778,32,0
n4,97,97,0.3356636888888889,26,0
n4,98,98,0.3381669277777778,34,0
n4,99,99,0.3387617888888889,27,0
n4,100,100,0.32432947777777776,33,0
n4,101,101,0.3223977444444444,27,0
n4,102,102,0.32372577222222226,30,0
n4,103,103,0.34766002222222225,18,0
n4,104,104,0.3348444111111111,31,0
n4,105,105,0.3483076222222222,22,0
n4,106,106,0.3331714555555556,34,0
n4,107,107,0.3439664055555556,27,0
n4,108,108,0.35571001666666663,22,0
n4,109,109,0.3326630111111111,23,0
n4,110,110,0.32757729444444444,31,0
n4,111,111,0.3159390111111111,40,0
n4,112,112,0.31350700000000004,37,0
n4,113,113,0.3277477555555556,27,0
n4,114,114,0.3416531944444445,23,0
n4,115,115,0.3449846388888889,23,0
n4,116,116,0.3310407611111111,22,0
n4,117,117,0.3406880166666667,31,0
n5,0,0,0.03527001111111111,8,1
n5,1,1,0.08613091666666665,8,0
n5,2,2,0.09458107222222224,36,0
n5,3,3,0.060071266666666664,26,0
n5,4,4,0.06670062222222223,40,0
n5,5,5,0.08412252777777778,34,0
n5,6,6,0.16871053888888893,89,0
n5,7,7,0.12144236666666665,77,0
n5,8,8,0.07283306111111111,49,0
n5,9,9,0.12156593888888888,37,0
n5,10,10,0.05330369444444445,21,0
n5,11,11,0.06400977777777778,27,0
n5,12,12,0.11933493888888888,42,0
n5,13,13,0.19457212222222225,28,0
n5,14,14,0.060564972222222214,31,0
n5,15,15,0.16553527777777774,72,0
n5,16,16,0.10724870555555556,63,0
n5,17,17,0.16556350555555555,79,0
n5,18,18,0.09851916666666666,39,0
n5,19,19,0.037017894444444435,23,0
n5,21,21,0.03922915555555556,8,1
n5,22,22,0.1534137277777778,38,0
n5,23,23,0.1707358833333333,58,0
n5,24,24,0.09179958333333334,23,0
n5,25,25,0.09285612222222224,2,0
n5,26,26,0.10145243888888887,0,0
n5,27,27,0.09132545555555556,1,0
n5,28,28,0.1333684888888889,23,0
n5,29,29,0.17653996666666666,28,0
n5,30,30,0.10519597777777777,46,0
n5,31,31,0.07038477222222222,23,0
n5,32,32,0.07595217222222223,16,1
n5,33,33,0.1548674722222222,42,0
n5,34,34,0.1174481388888889,23,0
n5,35,35,0.15779011666666667,15,0
n5,36,36,0.04665415555555556,11,1
n5,37,37,0.09034563333333333,12,0
n5,38,38,0.08920639444444445,19,0
n5,39,39,0.13701241666666664,33,0
n5,40,40,0.20035572777777774,44,0
n5,41,41,0.08364725555555555,11,1
n5,42,42,0.1190177611111111,60,0
n5,43,43,0.11943157222222225,8,0
n5,44,44,0.055537661111111115,10,1
n5,45,45,0.045094099999999984,20,1
n5,46,46,0.16156387222222224,102,0
n5,47,47,0.13393216666666666,64,0
n5,48,48,0.1285373,38,0
n5,49,49,0.09795846666666667,36,0
n5,50,50,0.1942802277777778,21,0
n5,51,51,0.05795524444444445,11,1
n5,52,52,0.1390617888888889,9,0
n5,53,53,0.05214272777777778,8,1
n5,54,54,0.021248427777777776,11,1
n5,55,55,0.04034179444444444,6,1
n5,56,56,0.03778142222222223,15,1
n5,57,57,0.004604011111111111,3,1
n5,58,58,0.04507591111111111,19,1
n5,59,59,0.0019017055555555558,2,1
n5,60,60,0.011267205555555557,2,1
n5,61,61,0.0007956333333333332,2,1
n5,65,65,0.0004066944444444445,0,1
n5,67,67,0.0072155833333333325,2,1
n5,70,70,0.04816753333333333,6,1
n5,71,71,0.0024597611111111107,0,1
n5,72,72,0.0006248888888888889,0,1
n5,73,73,0.006985755555555556,0,1
n5,74,74,0.006332277777777778,0,1
n5,75,75,0.00247035,0,1
n5,76,76,0.01777728333333333,0,1
n5,77,77,0.023790705555555552,4,1
n5,78,78,0.051191888888888884,23,0
n5,79,79,0.06973620000000001,28,0
n5,80,80,0.09281945,37,0
n5,81,81,0.01752387777777778,10,1
n5,82,82,0.0018912666666666667,1,1
n5,83,83,0.02929455,12,1
n5,84,84,0.018489099999999998,16,1
n5,85,85,0.0007283777777777777,1,1
n5,86,86,0.017054411111111112,5,1
n5,87,87,0.10649079444444444,61,0
n5,88,88,0.16719084444444446,3,0
n5,89,89,0.05090785,5,1
n5,90,90,0.0129542,2,1
n5,91,91,0.03949415555555556,13,1
n5,92,92,0.06462386666666667,5,1
n5,93,93,0.00473505,1,1
n5,94,94,0.015141061111111109,1,1
n5,96,96,0.002331838888888889,0,1
n5,97,97,0.0014374666666666668,0,1
n5,98,98,0.0014803666666666664,0,1
n5,99,99,0.0009317833333333332,0,1
n5,100,100,0.002149216666666667,1,1
n5,101,101,0.0010761,1,1
n5,102,102,0.00041916666666666665,0,1
n5,103,103,0.0015035888888888886,2,1
n5,104,104,0.009001894444444445,3,1
n5,105,105,0.007005711111111111,5,1
n5,107,107,0.0005897111111111111,1,1
